<?xml version="1.0" encoding="utf-8"?>
<!-- Generator: Adobe Illustrator 21.0.2, SVG Export Plug-In . SVG Version: 6.00 Build 0)  -->
<svg version="1.1" id="Ebene_1" xmlns="http://www.w3.org/2000/svg" xmlns:xlink="http://www.w3.org/1999/xlink" x="0px" y="0px"
	 viewBox="0 0 833.3 500" style="enable-background:new 0 0 833.3 500;" xml:space="preserve">
<path d="M556,132.7c8.3-16.7,11.7-36.7,6.7-60c-8.3-33.3-31.7-60-65-68.3c-45-13.3-91.7,10-110,50c-11.7-15-30-25-51.7-25
	c-30-1.7-58.3,18.3-68.3,45c-10,28.3-1.7,56.7,18.3,76.7c-28.3,15-48.3,43.3-50,78.3c-1.7,40,23.3,76.7,61.7,90
	c25,8.3,48.3,6.7,70-3.3c1.7-10,5-20,6.7-30c0-1.7,1.7-3.3,1.7-5c-5-5-11.7-11.7-18.3-20c-28.3-36.7-18.3-85-18.3-85
	s6.7,36.7,26.7,60c6.7,8.3,13.3,13.3,18.3,18.3c33.3-81.7,83.3-128.3,83.3-128.3c-8.3,10-48.3,113.3-65,205
	C391,404.3,396,479.3,396,496c0,1.7,1.7,3.3,5,3.3h45c3.3,0,5-1.7,5-5c-3.3-18.3-15-80-8.3-155c3.3,1.7,8.3,1.7,11.7,3.3
	c65,11.7,128.3-31.7,140-98.3C604.4,202.7,587.7,161,556,132.7z"/>
</svg>
