<?xml version="1.0" encoding="utf-8"?>
<!-- Generator: Adobe Illustrator 21.0.2, SVG Export Plug-In . SVG Version: 6.00 Build 0)  -->
<svg version="1.1" id="Ebene_1" xmlns="http://www.w3.org/2000/svg" xmlns:xlink="http://www.w3.org/1999/xlink" x="0px" y="0px"
	 viewBox="0 0 500 500" style="enable-background:new 0 0 500 500;" xml:space="preserve">
<g>
	<path d="M358.3,168.3l-76.7-66.7c-3.3-3.3-8.3,0-8.3,3.3v38.3l-106.7,5c-3.3,0-6.7,3.3-6.7,6.7v33.3c0,3.3,3.3,6.7,6.7,6.7l106.7,5
		v38.3c0,5,5,6.7,8.3,3.3l76.7-66.7C361.7,173.3,361.7,170,358.3,168.3z"/>
	<path d="M333.3,303.3l-106.7-5V260c0-5-5-6.7-8.3-3.3l-76.7,66.7c-3.3,1.7-3.3,6.7,0,8.3l76.7,66.7c3.3,3.3,8.3,0,8.3-3.3v-38.3
		l106.7-5c3.3,0,6.7-3.3,6.7-6.7v-33.3C340,306.7,336.7,303.3,333.3,303.3z"/>
</g>
</svg>
