<?xml version="1.0" encoding="utf-8"?>
<!-- Generator: Adobe Illustrator 21.0.2, SVG Export Plug-In . SVG Version: 6.00 Build 0)  -->
<svg version="1.1" id="Ebene_1" xmlns="http://www.w3.org/2000/svg" xmlns:xlink="http://www.w3.org/1999/xlink" x="0px" y="0px"
	 viewBox="0 0 500 500" style="enable-background:new 0 0 500 500;" xml:space="preserve">
<g>
	<path d="M136.7,213.3c-30,0-36.7,8.3-36.7,36.7s6.7,36.7,36.7,36.7c28.3,0,36.7-6.7,36.7-36.7S165,213.3,136.7,213.3z"/>
	<path d="M250,213.3c-28.3,0-36.7,6.7-36.7,36.7c0,30,6.7,36.7,36.7,36.7c28.3,0,36.7-6.7,36.7-36.7S278.3,213.3,250,213.3z"/>
	<path d="M363.3,213.3c-28.3,0-36.7,6.7-36.7,36.7c0,30,6.7,36.7,36.7,36.7c28.3,0,36.7-6.7,36.7-36.7S393.3,213.3,363.3,213.3z"/>
</g>
</svg>
