<?xml version="1.0" encoding="utf-8"?>
<!-- Generator: Adobe Illustrator 21.0.2, SVG Export Plug-In . SVG Version: 6.00 Build 0)  -->
<svg version="1.1" id="Ebene_1" xmlns="http://www.w3.org/2000/svg" xmlns:xlink="http://www.w3.org/1999/xlink" x="0px" y="0px"
	 viewBox="0 0 500 500" style="enable-background:new 0 0 500 500;" xml:space="preserve">
<g>
	<path d="M250,150.9c-98.3,0-150,96.7-150,96.7s51.7,101.7,150,101.7s150-101.7,150-101.7S348.3,150.9,250,150.9z M250,324.2
		c-41.7,0-75-33.3-75-75s33.3-75,75-75s75,33.3,75,75S291.7,324.2,250,324.2z"/>
	<path d="M250,249.2c0,0,13.3-16.7,23.3-28.3c1.7-1.7,1.7-5-1.7-6.7c-5-3.3-11.7-6.7-20-6.7c-18.3-1.7-35,10-41.7,26.7
		c-10,25,6.7,53.3,33.3,56.7c15,1.7,30-5,38.3-16.7c5-6.7,8.3-13.3,8.3-20c0-3.3-1.7-5-5-5C285,249.2,250,249.2,250,249.2z"/>
</g>
</svg>
