<?xml version="1.0" encoding="utf-8"?>
<!-- Generator: Adobe Illustrator 21.0.2, SVG Export Plug-In . SVG Version: 6.00 Build 0)  -->
<svg version="1.1" id="Ebene_1" xmlns="http://www.w3.org/2000/svg" xmlns:xlink="http://www.w3.org/1999/xlink" x="0px" y="0px"
	 viewBox="0 0 500 500" style="enable-background:new 0 0 500 500;" xml:space="preserve">
<path d="M260.4,86.4l37.5,114.4h120.6c11.3,0,15.6,13.8,6.9,20.6L327.2,292l37.5,114.4c3.1,10.6-8.8,19.4-17.5,12.5l-97.5-70
	l-97.5,70.6c-8.8,6.3-20.6-2.5-17.5-12.5l37.5-114.4l-97.5-71.3c-8.8-6.3-4.4-20.6,6.9-20.6h120.6l37.5-114.4
	C242.2,75.7,257.2,75.7,260.4,86.4z"/>
</svg>
