<?xml version="1.0" encoding="utf-8"?>
<!-- Generator: Adobe Illustrator 21.0.2, SVG Export Plug-In . SVG Version: 6.00 Build 0)  -->
<svg version="1.1" id="Ebene_1" xmlns="http://www.w3.org/2000/svg" xmlns:xlink="http://www.w3.org/1999/xlink" x="0px" y="0px"
	 viewBox="0 0 500 500" style="enable-background:new 0 0 500 500;" xml:space="preserve">
<g>
	<path d="M470.9,362.2v-26.9c0,0-3.7-12.5-20-30c-10-10.6-15-14.4-15-14.4l4.4-3.7v-2.5c0,0-61.9-13.1-152.5-11.3
		c-90.6,1.9-139.4,48.1-139.4,48.1s-70.6,6.3-103.1,22.5c-13.7,6.9-18.8,30.6-18.8,30.6l-5,8.1v31.3c0,0,13.7,9.4,46.2,9.4
		c0.6,0,1.9,0,3.1,0c4.4,13.7,17.5,23.8,32.5,23.8c15.6,0,28.1-10,32.5-23.8c68.1,0,169.4,0,237.5,0c4.4,13.7,17.5,23.8,32.5,23.8
		c15,0,28.1-10,32.5-23.8c3.7,0,6.3,0,6.3,0s33.8-3.1,33.8-22.5c0-18.8,0-26.3,0-26.3L470.9,362.2z"/>
	<path d="M220.9,257.2l35.6-35.6c13.8,8.1,29.4,11.9,45,11.9c23.7,0,46.9-9.4,63.7-26.3c16.9-16.9,26.3-40,26.3-63.8
		c0-24.4-9.4-46.9-26.9-63.7c-16.9-17.5-40-26.9-64.4-26.9c-23.7,0-46.9,9.4-63.7,26.3s-26.3,40-26.3,63.7c0,16.3,4.4,31.3,11.9,45
		l-73.7,74.4c-7.5,7.5-7.5,19.4-0.6,27.5C162.8,279.7,187.8,266,220.9,257.2z M262.8,104.7c10-10,23.1-15.6,37.5-15.6
		c14.4,0,28.1,5.6,38.1,16.3c10,10,15.6,23.7,16.3,38.1c0,14.4-5.6,27.5-15.6,37.5c-10,10-23.1,15.6-37.5,15.6s-28.1-5.6-38.1-16.3
		c-10-10-15.6-23.8-16.2-38.1C247.8,128.5,252.8,114.7,262.8,104.7z"/>
</g>
</svg>
