<?xml version="1.0" encoding="utf-8"?>
<!-- Generator: Adobe Illustrator 21.0.2, SVG Export Plug-In . SVG Version: 6.00 Build 0)  -->
<svg version="1.1" id="Ebene_1" xmlns="http://www.w3.org/2000/svg" xmlns:xlink="http://www.w3.org/1999/xlink" x="0px" y="0px"
	 viewBox="0 0 500 500" style="enable-background:new 0 0 500 500;" xml:space="preserve">
<g>
	<path d="M247.9,265l191.9-118.1v-19.4c0-6.3-5-11.3-11.3-11.3H71c-6.3,0-11.3,5-11.3,11.3v21.9L247.9,265z"/>
	<path d="M247.9,291.3L60.4,175.6v196.9c0,6.3,5,11.3,11.3,11.3h357.5c6.3,0,11.3-5,11.3-11.3V173.1L247.9,291.3z"/>
</g>
</svg>
