<?xml version="1.0" encoding="utf-8"?>
<!-- Generator: Adobe Illustrator 21.0.2, SVG Export Plug-In . SVG Version: 6.00 Build 0)  -->
<svg version="1.1" id="Ebene_1" xmlns="http://www.w3.org/2000/svg" xmlns:xlink="http://www.w3.org/1999/xlink" x="0px" y="0px"
	 viewBox="0 0 500 500" style="enable-background:new 0 0 500 500;" xml:space="preserve">
<g>
	<rect width="229.4" height="229.4"/>
	<rect x="270.6" width="229.4" height="229.4"/>
	<rect x="270.6" y="270.6" width="229.4" height="229.4"/>
	<rect y="270.6" width="229.4" height="229.4"/>
</g>
</svg>
