<?xml version="1.0" encoding="utf-8"?>
<!-- Generator: Adobe Illustrator 21.0.0, SVG Export Plug-In . SVG Version: 6.00 Build 0)  -->
<svg version="1.1" id="Ebene_1" xmlns="http://www.w3.org/2000/svg" xmlns:xlink="http://www.w3.org/1999/xlink" x="0px" y="0px"
	 viewBox="0 0 500 500" style="enable-background:new 0 0 500 500;" xml:space="preserve">
<path d="M2.9,160.2L68,92.7c3.8-3.8,7.6-3.8,11.4,0L250,263.3L420.1,92.8c3.8-3.8,7.6-3.8,11.4,0l66.4,66.4c3.8,3.8,3.8,7.6,0,11.4
	L265.2,404.4c-7.6,7.6-22.8,7.6-30.4,0L2.9,171.6C-1,167.8-1,164,2.9,160.2z"/>
</svg>
