<?xml version="1.0" encoding="utf-8"?>
<!-- Generator: Adobe Illustrator 21.0.0, SVG Export Plug-In . SVG Version: 6.00 Build 0)  -->
<svg version="1.1" id="Ebene_1" xmlns="http://www.w3.org/2000/svg" xmlns:xlink="http://www.w3.org/1999/xlink" x="0px" y="0px"
	 viewBox="0 0 500 500" style="enable-background:new 0 0 500 500;" xml:space="preserve">
<path d="M69.2,40.4l197.2,196.4c6.4,6.4,6.4,19.3,0,25.8l-198,197.1c-3.2,3.2-6.4,3.2-9.7,0L2.5,403.4c-3.2-3.2-3.2-6.4,0-9.7
	l144.4-144.1L2.4,105.1c-3.2-3.2-3.2-6.4,0-9.7l57.2-55.1C62.8,37.1,66,37.1,69.2,40.4z"/>
<path d="M298,40.4l197.2,196.4c6.4,6.4,6.4,19.3,0,25.8l-198,197.1c-3.2,3.2-6.4,3.2-9.7,0l-56.3-56.3c-3.2-3.2-3.2-6.4,0-9.7
	l144.4-144.1L231.2,105.1c-3.2-3.2-3.2-6.4,0-9.7l57.2-55.1C291.6,37.1,294.8,37.1,298,40.4z"/>
</svg>
