<?xml version="1.0" encoding="utf-8"?>
<!-- Generator: Adobe Illustrator 21.0.2, SVG Export Plug-In . SVG Version: 6.00 Build 0)  -->
<svg version="1.1" id="Ebene_1" xmlns="http://www.w3.org/2000/svg" xmlns:xlink="http://www.w3.org/1999/xlink" x="0px" y="0px"
	 viewBox="0 0 500 500" style="enable-background:new 0 0 500 500;" xml:space="preserve">
<path d="M250,0C103.6,0,68.9,34.7,68.9,181.1c0,127.2,142.6,281.3,173.4,316c3.9,3.9,11.6,3.9,15.4,0
	c34.7-34.7,173.4-192.7,173.4-316C431.1,34.7,396.4,0,250,0z M250,215.8c-30.8,0-53.9-23.1-53.9-53.9s23.1-53.9,53.9-53.9
	s53.9,23.1,53.9,53.9S280.8,215.8,250,215.8z"/>
</svg>
