<?xml version="1.0" encoding="utf-8"?>
<!-- Generator: Adobe Illustrator 21.0.0, SVG Export Plug-In . SVG Version: 6.00 Build 0)  -->
<svg version="1.1" id="Ebene_1" xmlns="http://www.w3.org/2000/svg" xmlns:xlink="http://www.w3.org/1999/xlink" x="0px" y="0px"
	 viewBox="0 0 500 500" style="enable-background:new 0 0 500 500;" xml:space="preserve">
<style type="text/css">
	.st0{fill:none;}
	.st1{fill:#00B5FC;}
</style>
<path class="st0" d="M251.9,102.4C214.4,154.9,150.6,246.1,150,319.9c0,55.6,45.6,100.6,101.9,100.6s101.9-45,101.9-100.6
	C353.8,254.3,289.4,156.8,251.9,102.4z M238.7,400.5c-1.2,0-1.9,0-2.5-0.6c-24.3-13.1-58.1-40-58.1-84.4c0-32.5,9.4-63.2,18.8-86.9
	c1.3-3.7,4.4-5,6.9-5c4.3,0,8.1,3.1,7.3,8.8c-3.1,16.8-5.6,36.8-5.6,63.1c0,41.9,21.3,80,36.3,97.5
	C245,396.1,242.4,400.5,238.7,400.5z"/>
<path d="M205.5,295.5c0-26.3,2.5-46.3,5.6-63.1c0.8-5.7-3-8.8-7.3-8.8c-2.5,0-5.6,1.3-6.9,5c-9.4,23.7-18.8,54.4-18.8,86.9
	c0,44.4,33.8,71.3,58.1,84.4c0.6,0.6,1.3,0.6,2.5,0.6c3.7,0,6.3-4.4,3.1-7.5C226.8,375.5,205.5,337.4,205.5,295.5z"/>
<path class="st1" d="M244.2,43.3C244.2,43.3,244.3,43.2,244.2,43.3C244.3,43.2,244.2,43.3,244.2,43.3z"/>
<path class="st1" d="M261.4,43.2c0,0,0.1,0.1,0.1,0.1C261.4,43.3,261.4,43.2,261.4,43.2z"/>
<path d="M261.5,43.3c0,0-0.1-0.1-0.1-0.1c-0.1-0.1-0.1-0.2-0.2-0.3c-1.4-1.9-3.4-3.3-5.7-3.9c-0.8-0.2-1.7-0.4-2.6-0.4
	c-3.6,0-6.7,1.8-8.6,4.5c0,0,0,0.1-0.1,0.1C212.7,90.4,110,212.6,110,319.2c0,78.1,63.8,141.3,142.5,141.3S395,397.4,395,319.2
	C395,223.2,292.3,90.5,261.5,43.3z M251.9,420.5c-56.3,0-101.9-45-101.9-100.6c0.6-73.8,64.4-165,101.9-217.5
	c37.5,54.4,101.9,151.9,101.9,217.5C353.8,375.5,308.2,420.5,251.9,420.5z"/>
</svg>
